{
    "app-id" : "org.gnome.Builder",
    "runtime" : "org.gnome.Sdk",
    "runtime-version" : "master",
    "sdk" : "org.gnome.Sdk",
    "command" : "gnome-builder",
    "tags" : [
        "nightly"
    ],
    "desktop-file-name-prefix" : "(Nightly) ",
    "finish-args" : [
        "--require-version=0.10.0",
        "--allow=devel",
        "--talk-name=org.freedesktop.Flatpak",
        "--share=ipc",
        "--socket=x11",
        "--socket=wayland",
        "--filesystem=home",
        "--filesystem=host",
        "--share=network",
        "--talk-name=org.gtk.vfs.*",
        "--system-talk-name=org.freedesktop.PolicyKit1",
        "--system-talk-name=org.gnome.Sysprof2",
        "--talk-name=org.gnome.CodeAssist.v1.*",
        "--filesystem=xdg-run/dconf",
        "--filesystem=~/.config/dconf:ro",
        "--talk-name=ca.desrt.dconf",
        "--env=DCONF_USER_CONFIG_DIR=.config/dconf",
        "--system-talk-name=org.freedesktop.Avahi",
        "--talk-name=org.freedesktop.FileManager1",
        "--talk-name=org.gnome.SettingsDaemon.Color",
        "--talk-name=org.freedesktop.PackageKit",
        "--talk-name=org.freedesktop.secrets",
        "--filesystem=xdg-run/keyring",
        "--filesystem=~/.local/share/flatpak",
        "--filesystem=xdg-data/meson",
        "--filesystem=/var/lib/flatpak",
        "--env=G_SLICE=always-malloc"
    ],
    "x-run-args" : [
        "--standalone",
        "-vvvv"
    ],
    "build-options" : {
        "env" : {
            "BASH_COMPLETIONSDIR" : "/app/share/bash-completion/completions",
            "MOUNT_FUSE_PATH" : "../tmp/",
            "V" : "1"
        }
    },
    "cleanup" : [
        "/include",
        "/lib/pkgconfig",
        "/lib/cmake",
        "/share/pkgconfig",
        "/share/aclocal",
        "/man",
        "/share/man",
        "/share/gtk-doc",
        "/share/vala",
        "/share/bash-completions",
        "*.la",
        "*.a"
    ],
    "modules" : [
        "python-deps.json",
        {
            "name" : "gperftools",
            "cleanup" : [
                "/bin",
                "/lib/libprofiler.*",
                "/lib/libtcmalloc_debug.*",
                "/lib/libtcmalloc.*",
                "/lib/libtcmalloc_and_profiler.*",
                "/lib/libtcmalloc_minimal_debug.*",
                "/share/doc"
            ],
            "sources" : [
                {
                    "type" : "git",
                    "url" : "https://github.com/gperftools/gperftools.git"
                }
            ]
        },
        {
            "name" : "uncrustify",
            "buildsystem" : "cmake-ninja",
            "config-opts" : [
                "-DCMAKE_BUILD_TYPE=Release"
            ],
            "builddir" : true,
            "sources" : [
                {
                    "type" : "archive",
                    "url" : "https://github.com/uncrustify/uncrustify/archive/uncrustify-0.66.1.tar.gz",
                    "sha256" : "0862778fb692ce9859f4ece5e801db72841d8d76d9304e2da52bdd098b05331f"
                }
            ]
        },
        {
            "name" : "libfuse",
            "config-opts" : [
                "UDEV_RULES_PATH=/app/etc/udev/rules.d",
                "INIT_D_PATH=/app/etc/init.d"
            ],
            "sources" : [
                {
                    "type" : "archive",
                    "url" : "https://github.com/libfuse/libfuse/releases/download/fuse-2.9.7/fuse-2.9.7.tar.gz",
                    "sha256" : "832432d1ad4f833c20e13b57cf40ce5277a9d33e483205fc63c78111b3358874"
                },
                {
                    "type" : "patch",
                    "path" : "fuse-2.9.2-namespace-conflict-fix.patch"
                },
                {
                    "type" : "patch",
                    "path" : "fuse-disable-sys-mount-under-flatpak.patch"
                }
            ]
        },
        {
            "name" : "polkit",
            "config-opts" : [
                "--disable-polkitd",
                "--disable-man-pages",
                "--disable-introspection"
            ],
            "rm-configure" : true,
            "cleanup" : [
                "/bin/*",
                "/etc/pam.d",
                "/etc/dbus-1",
                "/share/dbus-1/system-services/*",
                "/share/polkit-1/actions/*",
                "/lib/polkit-1"
            ],
            "sources" : [
                {
                    "type" : "archive",
                    "url" : "http://www.freedesktop.org/software/polkit/releases/polkit-0.113.tar.gz",
                    "sha256" : "e1c095093c654951f78f8618d427faf91cf62abdefed98de40ff65eca6413c81"
                },
                {
                    "type" : "patch",
                    "path" : "polkit-build-Add-option-to-build-without-polkitd.patch"
                },
                {
                    "type" : "file",
                    "path" : "polkit-autogen",
                    "dest-filename" : "autogen.sh"
                }
            ]
        },
        {
            "name" : "universal-ctags",
            "sources" : [
                {
                    "type" : "git",
                    "url" : "https://github.com/universal-ctags/ctags.git"
                }
            ]
        },
        {
            "name" : "libssh2",
            "buildsystem" : "cmake-ninja",
            "config-opts" : [
                "-DCMAKE_BUILD_TYPE=RelWithDebInfo",
                "-DCMAKE_INSTALL_LIBDIR:PATH=/app/lib",
                "-DBUILD_SHARED_LIBS:BOOL=ON"
            ],
            "cleanup" : [
                "/share/doc"
            ],
            "sources" : [
                {
                    "type" : "git",
                    "url" : "https://github.com/libssh2/libssh2.git",
                    "branch" : "libssh2-1.8.0"
                }
            ]
        },
        {
            "name" : "libgit2",
            "buildsystem" : "cmake-ninja",
            "config-opts" : [
                "-DCMAKE_BUILD_TYPE=RelWithDebInfo",
                "-DBUILD_SHARED_LIBS:BOOL=ON",
                "-DTHREADSAFE=ON"
            ],
            "sources" : [
                {
                    "type" : "git",
                    "url" : "https://github.com/libgit2/libgit2.git",
                    "branch" : "maint/v0.26"
                }
            ]
        },
        {
            "name" : "libgit2-glib",
            "config-opts" : [
                "--libdir=/app/lib",
                "--buildtype=debugoptimized"
            ],
            "buildsystem" : "meson",
            "builddir" : true,
            "sources" : [
                {
                    "type" : "git",
                    "url" : "https://gitlab.gnome.org/GNOME/libgit2-glib.git"
                }
            ]
        },
        {
            "name" : "libpeas",
            "cleanup" : [
                "/bin/*",
                "/lib/peas-demo",
                "/lib/libpeas-gtk*"
            ],
            "sources" : [
                {
                    "type" : "git",
                    "url" : "https://gitlab.gnome.org/GNOME/libpeas.git"
                }
            ]
        },
        {
            "name" : "gtksourceview",
            "sources" : [
                {
                    "type" : "git",
                    "url" : "https://gitlab.gnome.org/GNOME/gtksourceview.git"
                }
            ]
        },
        {
            "name" : "amtk",
            "buildsystem" : "autotools",
            "builddir" : true,
            "sources" : [
                {
                    "type" : "git",
                    "url" : "https://gitlab.gnome.org/GNOME/amtk.git"
                }
            ]
        },
        {
            "name" : "devhelp",
            "buildsystem" : "meson",
            "builddir" : true,
            "config-opts" : [
                "--libdir=/app/lib",
                "--buildtype=debugoptimized"
            ],
            "cleanup" : [
                "/bin/*",
                "/lib/gedit/plugins",
                "/share/appdata/*",
                "/share/applications/*",
                "/share/dbus-1/services",
                "/share/GConf"
            ],
            "sources" : [
                {
                    "type" : "git",
                    "url" : "https://gitlab.gnome.org/GNOME/devhelp.git"
                }
            ]
        },
        {
            "name" : "json-glib",
            "buildsystem" : "meson",
            "builddir" : true,
            "cleanup" : [
                "/bin"
            ],
            "config-opts" : [
                "--libdir=/app/lib",
                "--buildtype=debugoptimized"
            ],
            "sources" : [
                {
                    "type" : "git",
                    "url" : "https://gitlab.gnome.org/GNOME/json-glib.git"
                }
            ]
        },
        {
            "name" : "enchant",
            "cleanup" : [
                "/bin",
                "/share"
            ],
            "sources" : [
                {
                    "type" : "archive",
                    "url" : "https://github.com/AbiWord/enchant/releases/download/v2.1.3/enchant-2.1.3.tar.gz",
                    "sha256" : "086f37cdecd42eacd0e1dc291f5410d9ca2c5ed2cd9cd9367729e3d2d18a8550"
                }
            ]
        },
        {
            "name" : "gspell",
            "config-opts" : [
                "--disable-gtk-doc",
                "--disable-gtk-doc-html"
            ],
            "cleanup" : [
                "/bin",
                "/include",
                "/lib/pkgconfig",
                "*.la",
                "/share"
            ],
            "sources" : [
                {
                    "type" : "git",
                    "url" : "https://gitlab.gnome.org/GNOME/gspell.git"
                }
            ]
        },
        {
            "name" : "glade",
            "sources" : [
                {
                    "type" : "git",
                    "url" : "https://gitlab.gnome.org/GNOME/glade.git"
                }
            ]
        },
        {
            "name" : "sysprof",
            "config-opts" : [
                "--libdir=/app/lib",
                "--buildtype=debugoptimized",
                "-Denable_gtk=true",
                "-Dwith_sysprofd=host"
            ],
            "buildsystem" : "meson",
            "builddir" : true,
            "cleanup" : [
                "/bin/*",
                "/libexec/sysprof",
                "/share/appdata/",
                "/share/applications/",
                "/share/mime/packages"
            ],
            "sources" : [
                {
                    "type" : "git",
                    "url" : "https://gitlab.gnome.org/GNOME/sysprof.git"
                }
            ]
        },
        {
            "name" : "template-glib",
            "config-opts" : [
                "--libdir=/app/lib",
                "--buildtype=debugoptimized"
            ],
            "buildsystem" : "meson",
            "builddir" : true,
            "sources" : [
                {
                    "type" : "git",
                    "url" : "https://gitlab.gnome.org/GNOME/template-glib.git"
                }
            ]
        },
        {
            "name" : "jsonrpc-glib",
            "config-opts" : [
                "--libdir=/app/lib",
                "--buildtype=debugoptimized"
            ],
            "buildsystem" : "meson",
            "builddir" : true,
            "sources" : [
                {
                    "type" : "git",
                    "url" : "https://gitlab.gnome.org/GNOME/jsonrpc-glib.git"
                }
            ]
        },
        {
            "name" : "libdazzle",
            "config-opts" : [
                "--libdir=/app/lib",
                "--buildtype=debugoptimized"
            ],
            "buildsystem" : "meson",
            "builddir" : true,
            "sources" : [
                {
                    "type" : "git",
                    "url" : "https://gitlab.gnome.org/GNOME/libdazzle.git"
                }
            ]
        },
        {
            "name" : "ostree",
            "config-opts" : [
                "--disable-man"
            ],
            "cleanup" : [
                "/bin",
                "/etc/grub.d",
                "/etc/ostree",
                "/share/ostree",
                "/libexec"
            ],
            "sources" : [
                {
                    "type" : "archive",
                    "url" : "https://github.com/ostreedev/ostree/releases/download/v2018.7/libostree-2018.7.tar.xz",
                    "sha256" : "483e359fd934f3fb1abde2cd8ff9c5bccb97e2a37d52ed8bedfa9ab1290883d9"
                }
            ]
        },
        {
            "name" : "flatpak",
            "config-opts" : [
                "--disable-documentation",
                "--disable-seccomp",
                "--disable-sandboxed-triggers",
                "--disable-system-helper",
                "--with-system-install-dir=/var/lib/flatpak"
            ],
            "cleanup" : [
                "/bin/flatpak-bisect",
                "/etc/profile.d",
                "/libexec",
                "/lib/systemd",
                "/share/dbus-1/interfaces/org.freedesktop.*",
                "/share/dbus-1/services/org.freedesktop.*",
                "/share/gdm"
            ],
            "post-install" : [
                "cp /usr/bin/update-mime-database /app/bin",
                "cp /usr/bin/update-desktop-database /app/bin"
            ],
            "sources" : [
                {
                    "type" : "archive",
                    "url" : "https://github.com/flatpak/flatpak/releases/download/1.0.2/flatpak-1.0.2.tar.xz",
                    "sha256" : "f685625aa6c597ff7f7f241ca6e489aeb1d3c971e602490493765cb2aab71634"
                }
            ]
        },
        {
            "name" : "flatpak-builder",
            "sources" : [
                {
                    "type" : "archive",
                    "url" : "https://github.com/flatpak/flatpak-builder/releases/download/1.0.0/flatpak-builder-1.0.0.tar.xz",
                    "sha256" : "858a5b2204f569e47fb6cb57f28f7a0dab9d6f7a5a73a7c2688e23c61bf8567b"
                }
            ]
        },
        {
            "name" : "avahi",
            "cleanup" : [
                "/bin"
            ],
            "config-opts" : [
                "--with-distro=none",
                "--disable-qt3",
                "--disable-qt4",
                "--disable-qt5",
                "--disable-gtk",
                "--disable-gtk3",
                "--disable-python",
                "--disable-pygobject",
                "--disable-python-dbus",
                "--disable-mono",
                "--disable-monodoc",
                "--disable-autoipd",
                "--disable-core-docs",
                "--disable-manpages",
                "--disable-xmltoman",
                "--disable-tests",
                "--disable-libdaemon",
                "--disable-compat-libdns_sd",
                "--disable-compat-howl",
                "--disable-libevent"
            ],
            "sources" : [
                {
                    "type" : "git",
                    "url" : "https://github.com/lathiat/avahi.git"
                }
            ]
        },
        {
            "name" : "deviced",
            "config-opts" : [
                "--libdir=/app/lib",
                "--buildtype=debugoptimized",
                "-Ddaemon=false",
                "-Dtools=false"
            ],
            "buildsystem" : "meson",
            "builddir" : true,
            "sources" : [
                {
                    "type" : "git",
                    "url" : "https://gitlab.gnome.org/chergert/deviced.git"
                }
            ]
        },
        {
            "name" : "gnome-builder",
            "buildsystem" : "meson",
            "builddir" : true,
            "config-opts" : [
                "--libdir=lib",
                "--buildtype=debugoptimized",
                "-Dctags_path=/app/bin/ctags",
                "-Dfusermount_wrapper=true",
                "-Dtcmalloc=true",
                "-Dpython_libprefix=python3.7",
                "-Dtracing=true",
                "-Dhelp=true",
                "-Dwith_channel=flatpak-nightly",
                "-Dplugin_deviced=true"
            ],
            "sources" : [
                {
                    "disable-shallow-clone" : true,
                    "type" : "git",
                    "url" : "https://gitlab.gnome.org/GNOME/gnome-builder.git"
                }
            ]
        }
    ]
}
